CRA_proteomics_QC
…
## ══ SomaScan Data ═══════════════════════════════════════════════════════════════
##      SomaScan version     v4.1 (7k)
##      Signal Space         7k
##      Attributes intact    ✓
##      Rows                 95
##      Columns              7629
##      Clinical Data        33
##      Features             7596
## ── Column Meta ─────────────────────────────────────────────────────────────────
## ℹ SeqId, SeqIdVersion, SomaId, TargetFullName, Target, UniProt, EntrezGeneID,
## ℹ EntrezGeneSymbol, Organism, Units, Type, Dilution, PlateScale_Reference,
## ℹ CalReference, Cal_PLT11461, ColCheck, CalQcRatio_PLT11461_200174,
## ℹ QcReference_200174, Dilution2
## ── Tibble ──────────────────────────────────────────────────────────────────────
## # A tibble: 95 × 7,630
##    row_names      PlateId  PlateRunDate ScannerID PlatePosition SlideId Subarray
##    <chr>          <chr>    <chr>        <chr>     <chr>           <dbl>    <dbl>
##  1 258633851958_1 PLT11461 2022-06-18   SG120641… A1            2.59e11        1
##  2 258633851967_1 PLT11461 2022-06-18   SG120641… A10           2.59e11        1
##  3 258633851990_1 PLT11461 2022-06-18   SG120641… A11           2.59e11        1
##  4 258633851991_1 PLT11461 2022-06-18   SG120641… A12           2.59e11        1
##  5 258633851959_1 PLT11461 2022-06-18   SG120641… A2            2.59e11        1
##  6 258633851960_1 PLT11461 2022-06-18   SG120641… A3            2.59e11        1
##  7 258633851961_1 PLT11461 2022-06-18   SG120641… A4            2.59e11        1
##  8 258633851962_1 PLT11461 2022-06-18   SG120641… A5            2.59e11        1
##  9 258633851963_1 PLT11461 2022-06-18   SG120641… A6            2.59e11        1
## 10 258633851964_1 PLT11461 2022-06-18   SG120641… A7            2.59e11        1
## # ℹ 85 more rows
## # ℹ 7,623 more variables: SampleId <chr>, SampleType <chr>,
## #   PercentDilution <int>, SampleMatrix <chr>, Barcode <chr>, Barcode2d <chr>,
## #   SampleName <chr>, SampleNotes <lgl>, AliquotingNotes <chr>,
## #   SampleDescription <chr>, …
## ════════════════════════════════════════════════════════════════════════════════
…
# first 10 analytes; see AptName above
getAnalytes(adat) %>% head(10)

##  [1] "seq.10000.28" "seq.10001.7"  "seq.10003.15" "seq.10006.25" "seq.10008.43"
##  [6] "seq.10010.10" "seq.10011.65" "seq.10012.5"  "seq.10013.34" "seq.10014.31"

# how many analytes 
getAnalytes(adat) %>% length()     

## [1] 7596

# The getAnalyteInfo() function creates a lookup table that links analyte feature
getAnalyteInfo(adat)

## # A tibble: 7,596 × 20
##    AptName  SeqId SeqIdVersion SomaId TargetFullName Target UniProt EntrezGeneID
##    <chr>    <chr>        <dbl> <chr>  <chr>          <chr>  <chr>   <chr>       
##  1 seq.100… 1000…            3 SL019… Beta-crystall… CRBB2  P43320  "1415"      
##  2 seq.100… 1000…            3 SL002… RAF proto-onc… c-Raf  P04049  "5894"      
##  3 seq.100… 1000…            3 SL019… Zinc finger p… ZNF41  P51814  "7592"      
##  4 seq.100… 1000…            3 SL019… ETS domain-co… ELK1   P19419  "2002"      
##  5 seq.100… 1000…            3 SL019… Guanylyl cycl… GUC1A  P43080  "2978"      
##  6 seq.100… 1001…            3 SL014… Beclin-1       BECN1  Q14457  "8678"      
##  7 seq.100… 1001…            3 SL019… Inositol poly… OCRL   Q01968  "4952"      
##  8 seq.100… 1001…            3 SL014… SAM pointed d… SPDEF  O95238  "25803"     
##  9 seq.100… 1001…            3 SL025… Fc_MOUSE       Fc_MO… Q99LC4  ""          
## 10 seq.100… 1001…            3 SL007… Zinc finger p… SLUG   O43623  "6591"      
## # ℹ 7,586 more rows
## # ℹ 12 more variables: EntrezGeneSymbol <chr>, Organism <chr>, Units <chr>,
## #   Type <chr>, Dilution <chr>, PlateScale_Reference <dbl>, CalReference <dbl>,
## #   Cal_PLT11461 <dbl>, ColCheck <chr>, CalQcRatio_PLT11461_200174 <dbl>,
## #   QcReference_200174 <dbl>, Dilution2 <dbl>
…
